{
    "constructors": [],
    "externalReferences": [],
    "id": "01p6F000006uSV7QAM",
    "innerClasses": [],
    "interfaces": [],
    "key": "01p6F000006uSV7QAM",
    "methods": [
        {
            "annotations": [
                {
                    "name": "IsTest"
                }
            ],
            "location": {
                "column": 24,
                "line": 6
            },
            "modifiers": [
                "static",
                "testMethod",
                "global"
            ],
            "name": "testCommunitiesLoginController",
            "parameters": [],
            "references": [],
            "returnType": "void",
            "type": null
        }
    ],
    "name": "CommunitiesLoginControllerTest",
    "namespace": null,
    "parentClass": "",
    "properties": [],
    "tableDeclaration": {
        "annotations": [
            {
                "name": "IsTest"
            }
        ],
        "location": {
            "column": 35,
            "line": 4
        },
        "modifiers": [
            "testMethod",
            "global",
            "with sharing"
        ],
        "name": "CommunitiesLoginControllerTest",
        "references": [],
        "type": "CommunitiesLoginControllerTest"
    },
    "variables": [
        {
            "annotations": [],
            "location": {
                "column": 34,
                "line": 7
            },
            "modifiers": [],
            "name": "controller",
            "references": [],
            "type": "CommunitiesLoginController"
        }
    ]
}