{
    "constructors": [],
    "externalReferences": [],
    "id": "01p6F000006uSVDQA2",
    "innerClasses": [],
    "interfaces": [],
    "key": "01p6F000006uSVDQA2",
    "methods": [
        {
            "annotations": [
                {
                    "name": "IsTest"
                }
            ],
            "location": {
                "column": 49,
                "line": 5
            },
            "modifiers": [
                "static",
                "public",
                "testMethod"
            ],
            "name": "testCommunitiesSelfRegConfirmController",
            "parameters": [],
            "references": [],
            "returnType": "void",
            "type": null
        }
    ],
    "name": "CommunitiesSelfRegConfirmControllerTest",
    "namespace": null,
    "parentClass": "",
    "properties": [],
    "tableDeclaration": {
        "annotations": [
            {
                "name": "IsTest"
            }
        ],
        "location": {
            "column": 35,
            "line": 4
        },
        "modifiers": [
            "public",
            "testMethod",
            "with sharing"
        ],
        "name": "CommunitiesSelfRegConfirmControllerTest",
        "references": [],
        "type": "CommunitiesSelfRegConfirmControllerTest"
    },
    "variables": [
        {
            "annotations": [],
            "location": {
                "column": 45,
                "line": 7
            },
            "modifiers": [],
            "name": "controller",
            "references": [],
            "type": "CommunitiesSelfRegConfirmController"
        }
    ]
}