{
    "constructors": [
        {
            "annotations": [],
            "location": {
                "column": 9,
                "line": 5
            },
            "modifiers": [
                "public"
            ],
            "name": "ContactNewOverride",
            "parameters": [
                {
                    "name": "standardController",
                    "type": "StandardController"
                }
            ],
            "references": [],
            "type": null
        }
    ],
    "externalReferences": [],
    "id": "01p90000004fwcpAAA",
    "innerClasses": [],
    "interfaces": [],
    "key": "01p90000004fwcpAAA",
    "methods": [
        {
            "annotations": [],
            "location": {
                "column": 23,
                "line": 10
            },
            "modifiers": [
                "public"
            ],
            "name": "autoForward",
            "parameters": [],
            "references": [],
            "returnType": "PageReference",
            "type": null
        }
    ],
    "name": "ContactNewOverride",
    "namespace": null,
    "parentClass": "",
    "properties": [
        {
            "annotations": [],
            "location": {
                "column": 17,
                "line": 3
            },
            "modifiers": [
                "public"
            ],
            "name": "contact",
            "references": [],
            "type": "Contact"
        }
    ],
    "tableDeclaration": {
        "annotations": [],
        "location": {
            "column": 27,
            "line": 1
        },
        "modifiers": [
            "public",
            "with sharing"
        ],
        "name": "ContactNewOverride",
        "references": [],
        "type": "ContactNewOverride"
    },
    "variables": [
        {
            "annotations": [],
            "location": {
                "column": 57,
                "line": 5
            },
            "modifiers": [],
            "name": "standardController",
            "references": [],
            "type": "StandardController"
        },
        {
            "annotations": [],
            "location": {
                "column": 10,
                "line": 12
            },
            "modifiers": [],
            "name": "currentUrl",
            "references": [],
            "type": "String"
        },
        {
            "annotations": [],
            "location": {
                "column": 10,
                "line": 13
            },
            "modifiers": [],
            "name": "parentAccountId",
            "references": [],
            "type": "String"
        },
        {
            "annotations": [],
            "location": {
                "column": 10,
                "line": 14
            },
            "modifiers": [],
            "name": "queryString",
            "references": [],
            "type": "String"
        },
        {
            "annotations": [],
            "location": {
                "column": 10,
                "line": 17
            },
            "modifiers": [],
            "name": "forwardURL",
            "references": [],
            "type": "String"
        },
        {
            "annotations": [],
            "location": {
                "column": 19,
                "line": 21
            },
            "modifiers": [],
            "name": "accounts",
            "references": [],
            "type": "LIST"
        },
        {
            "annotations": [],
            "location": {
                "column": 12,
                "line": 25
            },
            "modifiers": [],
            "name": "mailingStreet1CFID",
            "references": [],
            "type": "String"
        },
        {
            "annotations": [],
            "location": {
                "column": 12,
                "line": 26
            },
            "modifiers": [],
            "name": "mailingStreet2CFID",
            "references": [],
            "type": "String"
        },
        {
            "annotations": [],
            "location": {
                "column": 12,
                "line": 27
            },
            "modifiers": [],
            "name": "mailingStreet3CFID",
            "references": [],
            "type": "String"
        },
        {
            "annotations": [],
            "location": {
                "column": 12,
                "line": 28
            },
            "modifiers": [],
            "name": "mailingStreet4CFID",
            "references": [],
            "type": "String"
        },
        {
            "annotations": [],
            "location": {
                "column": 12,
                "line": 29
            },
            "modifiers": [],
            "name": "mailingCityCFID",
            "references": [],
            "type": "String"
        },
        {
            "annotations": [],
            "location": {
                "column": 12,
                "line": 30
            },
            "modifiers": [],
            "name": "mailingStateCFID",
            "references": [],
            "type": "String"
        },
        {
            "annotations": [],
            "location": {
                "column": 12,
                "line": 31
            },
            "modifiers": [],
            "name": "mailingCountryCFID",
            "references": [],
            "type": "String"
        },
        {
            "annotations": [],
            "location": {
                "column": 12,
                "line": 32
            },
            "modifiers": [],
            "name": "mailingPostalCodeCFID",
            "references": [],
            "type": "String"
        }
    ]
}