{
    "constructors": [],
    "externalReferences": [],
    "id": "01p90000004hgwVAAQ",
    "innerClasses": [],
    "interfaces": [],
    "key": "01p90000004hgwVAAQ",
    "methods": [
        {
            "annotations": [
                {
                    "name": "IsTest"
                }
            ],
            "location": {
                "column": 25,
                "line": 4
            },
            "modifiers": [
                "private",
                "static",
                "testMethod"
            ],
            "name": "CreditCardExpiryReminderTestMethod",
            "parameters": [],
            "references": [],
            "returnType": "void",
            "type": null
        }
    ],
    "name": "CreditCardExpiryReminderTest",
    "namespace": null,
    "parentClass": "",
    "properties": [],
    "tableDeclaration": {
        "annotations": [
            {
                "name": "IsTest"
            }
        ],
        "location": {
            "column": 15,
            "line": 2
        },
        "modifiers": [
            "private",
            "testMethod"
        ],
        "name": "CreditCardExpiryReminderTest",
        "references": [],
        "type": "CreditCardExpiryReminderTest"
    },
    "variables": [
        {
            "annotations": [],
            "location": {
                "column": 11,
                "line": 6
            },
            "modifiers": [],
            "name": "account",
            "references": [],
            "type": "Account"
        },
        {
            "annotations": [],
            "location": {
                "column": 11,
                "line": 10
            },
            "modifiers": [],
            "name": "contact",
            "references": [],
            "type": "Contact"
        },
        {
            "annotations": [],
            "location": {
                "column": 29,
                "line": 17
            },
            "modifiers": [],
            "name": "billingAccount",
            "references": [],
            "type": "Zuora__CustomerAccount__c"
        },
        {
            "annotations": [],
            "location": {
                "column": 27,
                "line": 21
            },
            "modifiers": [],
            "name": "paymentMethod",
            "references": [],
            "type": "Zuora__PaymentMethod__c"
        }
    ]
}