{
    "constructors": [],
    "externalReferences": [],
    "id": "01p90000004fwd6AAA",
    "innerClasses": [],
    "interfaces": [],
    "key": "01p90000004fwd6AAA",
    "methods": [
        {
            "annotations": [
                {
                    "name": "IsTest"
                }
            ],
            "location": {
                "column": 25,
                "line": 4
            },
            "modifiers": [
                "private",
                "static",
                "testMethod"
            ],
            "name": "testMultiselectController",
            "parameters": [],
            "references": [],
            "returnType": "void",
            "type": null
        }
    ],
    "name": "MultiselectControllerTest",
    "namespace": null,
    "parentClass": "",
    "properties": [],
    "tableDeclaration": {
        "annotations": [
            {
                "name": "IsTest"
            }
        ],
        "location": {
            "column": 15,
            "line": 2
        },
        "modifiers": [
            "private",
            "testMethod"
        ],
        "name": "MultiselectControllerTest",
        "references": [],
        "type": "MultiselectControllerTest"
    },
    "variables": [
        {
            "annotations": [],
            "location": {
                "column": 25,
                "line": 6
            },
            "modifiers": [],
            "name": "c",
            "references": [],
            "type": "MultiselectController"
        }
    ]
}