{
    "constructors": [
        {
            "annotations": [],
            "location": {
                "column": 9,
                "line": 15
            },
            "modifiers": [
                "public"
            ],
            "name": "Query_Override",
            "parameters": [
                {
                    "name": "standardController",
                    "type": "StandardController"
                }
            ],
            "references": [],
            "type": null
        }
    ],
    "externalReferences": [],
    "id": "01p90000006XPSkAAO",
    "innerClasses": [
        {
            "constructors": [],
            "externalReferences": [],
            "id": null,
            "innerClasses": [],
            "interfaces": [
                "System.Comparable"
            ],
            "key": null,
            "methods": [
                {
                    "annotations": [],
                    "location": {
                        "column": 18,
                        "line": 332
                    },
                    "modifiers": [
                        "public"
                    ],
                    "name": "compareTo",
                    "parameters": [
                        {
                            "name": "compareTo",
                            "type": "Object"
                        }
                    ],
                    "references": [],
                    "returnType": "Integer",
                    "type": null
                }
            ],
            "name": "QueryRecipient",
            "namespace": null,
            "parentClass": "",
            "properties": [
                {
                    "annotations": [],
                    "location": {
                        "column": 13,
                        "line": 325
                    },
                    "modifiers": [
                        "public"
                    ],
                    "name": "Id",
                    "references": [],
                    "type": "Id"
                },
                {
                    "annotations": [],
                    "location": {
                        "column": 17,
                        "line": 326
                    },
                    "modifiers": [
                        "public"
                    ],
                    "name": "Name",
                    "references": [],
                    "type": "String"
                },
                {
                    "annotations": [],
                    "location": {
                        "column": 17,
                        "line": 327
                    },
                    "modifiers": [
                        "public"
                    ],
                    "name": "FirstName",
                    "references": [],
                    "type": "String"
                },
                {
                    "annotations": [],
                    "location": {
                        "column": 17,
                        "line": 328
                    },
                    "modifiers": [
                        "public"
                    ],
                    "name": "Label",
                    "references": [],
                    "type": "String"
                },
                {
                    "annotations": [],
                    "location": {
                        "column": 17,
                        "line": 329
                    },
                    "modifiers": [
                        "public"
                    ],
                    "name": "Email",
                    "references": [],
                    "type": "String"
                }
            ],
            "tableDeclaration": {
                "annotations": [],
                "location": {
                    "column": 16,
                    "line": 323
                },
                "modifiers": [
                    "private"
                ],
                "name": "QueryRecipient",
                "references": [],
                "type": "QueryRecipient"
            },
            "variables": [
                {
                    "annotations": [],
                    "location": {
                        "column": 35,
                        "line": 332
                    },
                    "modifiers": [],
                    "name": "compareTo",
                    "references": [],
                    "type": "Object"
                },
                {
                    "annotations": [],
                    "location": {
                        "column": 19,
                        "line": 334
                    },
                    "modifiers": [],
                    "name": "compareToQueryRecipient",
                    "references": [],
                    "type": "QueryRecipient"
                }
            ]
        }
    ],
    "interfaces": [],
    "key": "01p90000006XPSkAAO",
    "methods": [
        {
            "annotations": [],
            "location": {
                "column": 14,
                "line": 29
            },
            "modifiers": [
                "public"
            ],
            "name": "init",
            "parameters": [],
            "references": [],
            "returnType": "void",
            "type": null
        },
        {
            "annotations": [],
            "location": {
                "column": 23,
                "line": 133
            },
            "modifiers": [
                "public"
            ],
            "name": "sendToClient",
            "parameters": [],
            "references": [],
            "returnType": "PageReference",
            "type": null
        },
        {
            "annotations": [],
            "location": {
                "column": 17,
                "line": 341
            },
            "modifiers": [
                "private"
            ],
            "name": "htmlEncode",
            "parameters": [
                {
                    "name": "input",
                    "type": "String"
                }
            ],
            "references": [],
            "returnType": "String",
            "type": null
        }
    ],
    "name": "Query_Override",
    "namespace": null,
    "parentClass": "",
    "properties": [
        {
            "annotations": [],
            "location": {
                "column": 18,
                "line": 4
            },
            "modifiers": [
                "public"
            ],
            "name": "query",
            "references": [],
            "type": "Query__c"
        },
        {
            "annotations": [],
            "location": {
                "column": 31,
                "line": 5
            },
            "modifiers": [
                "public"
            ],
            "name": "clientContactRecipients",
            "references": [],
            "type": "LIST"
        },
        {
            "annotations": [],
            "location": {
                "column": 29,
                "line": 6
            },
            "modifiers": [
                "public"
            ],
            "name": "sendToSelectOptions",
            "references": [],
            "type": "LIST"
        },
        {
            "annotations": [],
            "location": {
                "column": 16,
                "line": 7
            },
            "modifiers": [
                "public"
            ],
            "name": "attachmentFileName",
            "references": [],
            "type": "String"
        },
        {
            "annotations": [],
            "location": {
                "column": 16,
                "line": 8
            },
            "modifiers": [
                "public"
            ],
            "name": "originalBody",
            "references": [],
            "type": "String"
        },
        {
            "annotations": [],
            "location": {
                "column": 14,
                "line": 9
            },
            "modifiers": [
                "public"
            ],
            "name": "attachmentBody",
            "references": [],
            "type": "Blob"
        },
        {
            "annotations": [],
            "location": {
                "column": 26,
                "line": 10
            },
            "modifiers": [
                "public"
            ],
            "name": "lastResponse",
            "references": [],
            "type": "QueryResponse__c"
        },
        {
            "annotations": [],
            "location": {
                "column": 36,
                "line": 13
            },
            "modifiers": [
                "private"
            ],
            "name": "clientContactRecipientMap",
            "references": [],
            "type": "Map"
        }
    ],
    "tableDeclaration": {
        "annotations": [],
        "location": {
            "column": 27,
            "line": 1
        },
        "modifiers": [
            "public",
            "with sharing"
        ],
        "name": "Query_Override",
        "references": [],
        "type": "Query_Override"
    },
    "variables": [
        {
            "annotations": [],
            "location": {
                "column": 53,
                "line": 15
            },
            "modifiers": [],
            "name": "standardController",
            "references": [],
            "type": "StandardController"
        },
        {
            "annotations": [],
            "location": {
                "column": 20,
                "line": 21
            },
            "modifiers": [],
            "name": "queries",
            "references": [],
            "type": "LIST"
        },
        {
            "annotations": [],
            "location": {
                "column": 27,
                "line": 88
            },
            "modifiers": [],
            "name": "queryContacts",
            "references": [],
            "type": "LIST"
        },
        {
            "annotations": [],
            "location": {
                "column": 25,
                "line": 90
            },
            "modifiers": [],
            "name": "querycontact",
            "references": [],
            "type": "QueryContact__c"
        },
        {
            "annotations": [],
            "location": {
                "column": 20,
                "line": 92
            },
            "modifiers": [],
            "name": "queryRecipient",
            "references": [],
            "type": "QueryRecipient"
        },
        {
            "annotations": [],
            "location": {
                "column": 23,
                "line": 113
            },
            "modifiers": [],
            "name": "queryRecipient",
            "references": [],
            "type": "QueryRecipient"
        },
        {
            "annotations": [],
            "location": {
                "column": 28,
                "line": 128
            },
            "modifiers": [],
            "name": "queryResponses",
            "references": [],
            "type": "LIST"
        },
        {
            "annotations": [],
            "location": {
                "column": 11,
                "line": 135
            },
            "modifiers": [],
            "name": "newQuery",
            "references": [],
            "type": "Boolean"
        },
        {
            "annotations": [],
            "location": {
                "column": 10,
                "line": 136
            },
            "modifiers": [],
            "name": "updatedBody",
            "references": [],
            "type": "String"
        },
        {
            "annotations": [],
            "location": {
                "column": 30,
                "line": 162
            },
            "modifiers": [],
            "name": "orgWideEmailAddresses",
            "references": [],
            "type": "LIST"
        },
        {
            "annotations": [],
            "location": {
                "column": 24,
                "line": 165
            },
            "modifiers": [],
            "name": "orgWideEmailAddress",
            "references": [],
            "type": "OrgWideEmailAddress"
        },
        {
            "annotations": [],
            "location": {
                "column": 25,
                "line": 168
            },
            "modifiers": [],
            "name": "emailTemplates",
            "references": [],
            "type": "LIST"
        },
        {
            "annotations": [],
            "location": {
                "column": 19,
                "line": 172
            },
            "modifiers": [],
            "name": "emailTemplate",
            "references": [],
            "type": "EmailTemplate"
        },
        {
            "annotations": [],
            "location": {
                "column": 20,
                "line": 175
            },
            "modifiers": [],
            "name": "accounts",
            "references": [],
            "type": "LIST"
        },
        {
            "annotations": [],
            "location": {
                "column": 14,
                "line": 178
            },
            "modifiers": [],
            "name": "entity",
            "references": [],
            "type": "Account"
        },
        {
            "annotations": [],
            "location": {
                "column": 23,
                "line": 180
            },
            "modifiers": [],
            "name": "queryResponse",
            "references": [],
            "type": "QueryResponse__c"
        },
        {
            "annotations": [],
            "location": {
                "column": 13,
                "line": 191
            },
            "modifiers": [],
            "name": "headline",
            "references": [],
            "type": "String"
        },
        {
            "annotations": [],
            "location": {
                "column": 13,
                "line": 218
            },
            "modifiers": [],
            "name": "salutation",
            "references": [],
            "type": "String"
        },
        {
            "annotations": [],
            "location": {
                "column": 13,
                "line": 219
            },
            "modifiers": [],
            "name": "signature",
            "references": [],
            "type": "String"
        },
        {
            "annotations": [],
            "location": {
                "column": 14,
                "line": 240
            },
            "modifiers": [],
            "name": "plainTextBody",
            "references": [],
            "type": "String"
        },
        {
            "annotations": [],
            "location": {
                "column": 14,
                "line": 252
            },
            "modifiers": [],
            "name": "htmlBody",
            "references": [],
            "type": "String"
        },
        {
            "annotations": [],
            "location": {
                "column": 18,
                "line": 289
            },
            "modifiers": [],
            "name": "attachment",
            "references": [],
            "type": "Attachment"
        },
        {
            "annotations": [],
            "location": {
                "column": 35,
                "line": 297
            },
            "modifiers": [],
            "name": "singleEmailMessage",
            "references": [],
            "type": "SingleEmailMessage"
        },
        {
            "annotations": [],
            "location": {
                "column": 37,
                "line": 308
            },
            "modifiers": [],
            "name": "emailFileAttachment",
            "references": [],
            "type": "EmailFileAttachment"
        },
        {
            "annotations": [],
            "location": {
                "column": 35,
                "line": 341
            },
            "modifiers": [],
            "name": "input",
            "references": [],
            "type": "String"
        },
        {
            "annotations": [],
            "location": {
                "column": 17,
                "line": 343
            },
            "modifiers": [],
            "name": "fromArray",
            "references": [],
            "type": "LIST"
        },
        {
            "annotations": [],
            "location": {
                "column": 17,
                "line": 344
            },
            "modifiers": [],
            "name": "toArray",
            "references": [],
            "type": "LIST"
        },
        {
            "annotations": [],
            "location": {
                "column": 16,
                "line": 351
            },
            "modifiers": [],
            "name": "replaceIndex",
            "references": [],
            "type": "Integer"
        }
    ]
}