{
    "constructors": [],
    "externalReferences": [],
    "id": "01p90000004fwdNAAQ",
    "innerClasses": [],
    "interfaces": [],
    "key": "01p90000004fwdNAAQ",
    "methods": [
        {
            "annotations": [],
            "location": {
                "column": 21,
                "line": 8
            },
            "modifiers": [
                "static",
                "public"
            ],
            "name": "spawnTasksFromTemplate",
            "parameters": [
                {
                    "name": "processTemplateId",
                    "type": "Id"
                },
                {
                    "name": "serviceId",
                    "type": "Id"
                }
            ],
            "references": [],
            "returnType": "void",
            "type": null
        },
        {
            "annotations": [],
            "location": {
                "column": 21,
                "line": 214
            },
            "modifiers": [
                "static",
                "public"
            ],
            "name": "CheckForDependenciesBeforeStart",
            "parameters": [],
            "references": [],
            "returnType": "void",
            "type": null
        },
        {
            "annotations": [],
            "location": {
                "column": 21,
                "line": 241
            },
            "modifiers": [
                "static",
                "public"
            ],
            "name": "CheckForDependenciesBeforeCompletion",
            "parameters": [],
            "references": [],
            "returnType": "void",
            "type": null
        },
        {
            "annotations": [],
            "location": {
                "column": 21,
                "line": 263
            },
            "modifiers": [
                "static",
                "public"
            ],
            "name": "CheckIfUserIsPartOfAccountTeam",
            "parameters": [],
            "references": [],
            "returnType": "void",
            "type": null
        },
        {
            "annotations": [],
            "location": {
                "column": 21,
                "line": 302
            },
            "modifiers": [
                "static",
                "public"
            ],
            "name": "runTaskRules",
            "parameters": [],
            "references": [],
            "returnType": "void",
            "type": null
        },
        {
            "annotations": [],
            "location": {
                "column": 21,
                "line": 435
            },
            "modifiers": [
                "static",
                "public"
            ],
            "name": "populateFieldsOnPrimaryContact",
            "parameters": [],
            "references": [],
            "returnType": "void",
            "type": null
        },
        {
            "annotations": [],
            "location": {
                "column": 21,
                "line": 464
            },
            "modifiers": [
                "static",
                "public"
            ],
            "name": "setNextCurrentTask",
            "parameters": [],
            "references": [],
            "returnType": "void",
            "type": null
        }
    ],
    "name": "TaskUtils",
    "namespace": null,
    "parentClass": "",
    "properties": [
        {
            "annotations": [],
            "location": {
                "column": 24,
                "line": 3
            },
            "modifiers": [
                "static",
                "public"
            ],
            "name": "tirggerRunning",
            "references": [],
            "type": "Boolean"
        },
        {
            "annotations": [],
            "location": {
                "column": 35,
                "line": 6
            },
            "modifiers": [
                "static",
                "public",
                "final"
            ],
            "name": "excludeFields",
            "references": [],
            "type": "Set"
        }
    ],
    "tableDeclaration": {
        "annotations": [],
        "location": {
            "column": 27,
            "line": 1
        },
        "modifiers": [
            "public",
            "with sharing"
        ],
        "name": "TaskUtils",
        "references": [],
        "type": "TaskUtils"
    },
    "variables": [
        {
            "annotations": [],
            "location": {
                "column": 47,
                "line": 8
            },
            "modifiers": [],
            "name": "processTemplateId",
            "references": [],
            "type": "Id"
        },
        {
            "annotations": [],
            "location": {
                "column": 69,
                "line": 8
            },
            "modifiers": [],
            "name": "serviceId",
            "references": [],
            "type": "Id"
        },
        {
            "annotations": [],
            "location": {
                "column": 22,
                "line": 12
            },
            "modifiers": [],
            "name": "services",
            "references": [],
            "type": "LIST"
        },
        {
            "annotations": [],
            "location": {
                "column": 16,
                "line": 16
            },
            "modifiers": [],
            "name": "service",
            "references": [],
            "type": "Service__c"
        },
        {
            "annotations": [],
            "location": {
                "column": 39,
                "line": 18
            },
            "modifiers": [],
            "name": "taskTemplateFields",
            "references": [],
            "type": "Map"
        },
        {
            "annotations": [],
            "location": {
                "column": 39,
                "line": 19
            },
            "modifiers": [],
            "name": "taskFields",
            "references": [],
            "type": "Map"
        },
        {
            "annotations": [],
            "location": {
                "column": 39,
                "line": 20
            },
            "modifiers": [],
            "name": "taskTemplateRuleFields",
            "references": [],
            "type": "Map"
        },
        {
            "annotations": [],
            "location": {
                "column": 39,
                "line": 21
            },
            "modifiers": [],
            "name": "taskRuleFields",
            "references": [],
            "type": "Map"
        },
        {
            "annotations": [],
            "location": {
                "column": 39,
                "line": 22
            },
            "modifiers": [],
            "name": "trimAttachmentFields",
            "references": [],
            "type": "Map"
        },
        {
            "annotations": [],
            "location": {
                "column": 39,
                "line": 23
            },
            "modifiers": [],
            "name": "trimAttachmentTemplateFields",
            "references": [],
            "type": "Map"
        },
        {
            "annotations": [],
            "location": {
                "column": 12,
                "line": 26
            },
            "modifiers": [],
            "name": "query",
            "references": [],
            "type": "String"
        },
        {
            "annotations": [],
            "location": {
                "column": 16,
                "line": 28
            },
            "modifiers": [],
            "name": "s",
            "references": [],
            "type": "String"
        },
        {
            "annotations": [],
            "location": {
                "column": 23,
                "line": 40
            },
            "modifiers": [],
            "name": "tasks",
            "references": [],
            "type": "Map"
        },
        {
            "annotations": [],
            "location": {
                "column": 14,
                "line": 41
            },
            "modifiers": [],
            "name": "taskTemplateIds",
            "references": [],
            "type": "Set"
        },
        {
            "annotations": [],
            "location": {
                "column": 20,
                "line": 42
            },
            "modifiers": [],
            "name": "tasksToInsert",
            "references": [],
            "type": "LIST"
        },
        {
            "annotations": [],
            "location": {
                "column": 26,
                "line": 44
            },
            "modifiers": [],
            "name": "accountTeamMemberRoles",
            "references": [],
            "type": "Map"
        },
        {
            "annotations": [],
            "location": {
                "column": 28,
                "line": 46
            },
            "modifiers": [],
            "name": "accountTeamMember",
            "references": [],
            "type": "AccountTeamMember"
        },
        {
            "annotations": [],
            "location": {
                "column": 18,
                "line": 62
            },
            "modifiers": [],
            "name": "taskTemplate",
            "references": [],
            "type": "SObject"
        },
        {
            "annotations": [],
            "location": {
                "column": 14,
                "line": 64
            },
            "modifiers": [],
            "name": "task",
            "references": [],
            "type": "SObject"
        },
        {
            "annotations": [],
            "location": {
                "column": 17,
                "line": 66
            },
            "modifiers": [],
            "name": "s",
            "references": [],
            "type": "String"
        },
        {
            "annotations": [],
            "location": {
                "column": 31,
                "line": 112
            },
            "modifiers": [],
            "name": "dependenciesToInsert",
            "references": [],
            "type": "LIST"
        },
        {
            "annotations": [],
            "location": {
                "column": 38,
                "line": 114
            },
            "modifiers": [],
            "name": "templateDependency",
            "references": [],
            "type": "Task_Template_Dependency__c"
        },
        {
            "annotations": [],
            "location": {
                "column": 25,
                "line": 119
            },
            "modifiers": [],
            "name": "taskDependency",
            "references": [],
            "type": "Task_Dependency__c"
        },
        {
            "annotations": [],
            "location": {
                "column": 20,
                "line": 133
            },
            "modifiers": [],
            "name": "trimAttachmentsToInsert",
            "references": [],
            "type": "LIST"
        },
        {
            "annotations": [],
            "location": {
                "column": 16,
                "line": 137
            },
            "modifiers": [],
            "name": "s",
            "references": [],
            "type": "String"
        },
        {
            "annotations": [],
            "location": {
                "column": 38,
                "line": 149
            },
            "modifiers": [],
            "name": "trimAttachmentTemplate",
            "references": [],
            "type": "TRIM_Attachment_Template__c"
        },
        {
            "annotations": [],
            "location": {
                "column": 14,
                "line": 151
            },
            "modifiers": [],
            "name": "trimAttachment",
            "references": [],
            "type": "SObject"
        },
        {
            "annotations": [],
            "location": {
                "column": 17,
                "line": 155
            },
            "modifiers": [],
            "name": "s",
            "references": [],
            "type": "String"
        },
        {
            "annotations": [],
            "location": {
                "column": 20,
                "line": 169
            },
            "modifiers": [],
            "name": "taskRulesToInsert",
            "references": [],
            "type": "LIST"
        },
        {
            "annotations": [],
            "location": {
                "column": 16,
                "line": 173
            },
            "modifiers": [],
            "name": "s",
            "references": [],
            "type": "String"
        },
        {
            "annotations": [],
            "location": {
                "column": 18,
                "line": 185
            },
            "modifiers": [],
            "name": "taskTemplateRule",
            "references": [],
            "type": "SObject"
        },
        {
            "annotations": [],
            "location": {
                "column": 14,
                "line": 187
            },
            "modifiers": [],
            "name": "taskRule",
            "references": [],
            "type": "SObject"
        },
        {
            "annotations": [],
            "location": {
                "column": 17,
                "line": 189
            },
            "modifiers": [],
            "name": "s",
            "references": [],
            "type": "String"
        },
        {
            "annotations": [],
            "location": {
                "column": 12,
                "line": 216
            },
            "modifiers": [],
            "name": "taskIdsToCheck",
            "references": [],
            "type": "Set"
        },
        {
            "annotations": [],
            "location": {
                "column": 16,
                "line": 218
            },
            "modifiers": [],
            "name": "task",
            "references": [],
            "type": "SObject"
        },
        {
            "annotations": [],
            "location": {
                "column": 27,
                "line": 231
            },
            "modifiers": [],
            "name": "dependency",
            "references": [],
            "type": "Task_Dependency__c"
        },
        {
            "annotations": [],
            "location": {
                "column": 12,
                "line": 243
            },
            "modifiers": [],
            "name": "taskIdsToCheck",
            "references": [],
            "type": "Set"
        },
        {
            "annotations": [],
            "location": {
                "column": 16,
                "line": 245
            },
            "modifiers": [],
            "name": "task",
            "references": [],
            "type": "SObject"
        },
        {
            "annotations": [],
            "location": {
                "column": 27,
                "line": 253
            },
            "modifiers": [],
            "name": "dependency",
            "references": [],
            "type": "Task_Dependency__c"
        },
        {
            "annotations": [],
            "location": {
                "column": 12,
                "line": 265
            },
            "modifiers": [],
            "name": "userIds",
            "references": [],
            "type": "Set"
        },
        {
            "annotations": [],
            "location": {
                "column": 12,
                "line": 266
            },
            "modifiers": [],
            "name": "affectedTaskIds",
            "references": [],
            "type": "Set"
        },
        {
            "annotations": [],
            "location": {
                "column": 16,
                "line": 268
            },
            "modifiers": [],
            "name": "sTask",
            "references": [],
            "type": "SObject"
        },
        {
            "annotations": [],
            "location": {
                "column": 12,
                "line": 270
            },
            "modifiers": [],
            "name": "task",
            "references": [],
            "type": "Task__c"
        },
        {
            "annotations": [],
            "location": {
                "column": 22,
                "line": 281
            },
            "modifiers": [],
            "name": "userMemberAccounts",
            "references": [],
            "type": "Map"
        },
        {
            "annotations": [],
            "location": {
                "column": 26,
                "line": 283
            },
            "modifiers": [],
            "name": "teamMember",
            "references": [],
            "type": "AccountTeamMember"
        },
        {
            "annotations": [],
            "location": {
                "column": 16,
                "line": 293
            },
            "modifiers": [],
            "name": "task",
            "references": [],
            "type": "Task__c"
        },
        {
            "annotations": [],
            "location": {
                "column": 18,
                "line": 304
            },
            "modifiers": [],
            "name": "tasksToUpdate",
            "references": [],
            "type": "LIST"
        },
        {
            "annotations": [],
            "location": {
                "column": 37,
                "line": 306
            },
            "modifiers": [],
            "name": "taskFields",
            "references": [],
            "type": "Map"
        },
        {
            "annotations": [],
            "location": {
                "column": 12,
                "line": 307
            },
            "modifiers": [],
            "name": "taskIds",
            "references": [],
            "type": "Set"
        },
        {
            "annotations": [],
            "location": {
                "column": 10,
                "line": 309
            },
            "modifiers": [],
            "name": "query",
            "references": [],
            "type": "String"
        },
        {
            "annotations": [],
            "location": {
                "column": 14,
                "line": 312
            },
            "modifiers": [],
            "name": "s",
            "references": [],
            "type": "String"
        },
        {
            "annotations": [],
            "location": {
                "column": 16,
                "line": 323
            },
            "modifiers": [],
            "name": "sObjectTask",
            "references": [],
            "type": "SObject"
        },
        {
            "annotations": [],
            "location": {
                "column": 12,
                "line": 325
            },
            "modifiers": [],
            "name": "task",
            "references": [],
            "type": "Task__c"
        },
        {
            "annotations": [],
            "location": {
                "column": 18,
                "line": 329
            },
            "modifiers": [],
            "name": "taskRule",
            "references": [],
            "type": "Task_Rule__c"
        },
        {
            "annotations": [],
            "location": {
                "column": 20,
                "line": 368
            },
            "modifiers": [],
            "name": "selectedMandatoryFields",
            "references": [],
            "type": "LIST"
        },
        {
            "annotations": [],
            "location": {
                "column": 19,
                "line": 377
            },
            "modifiers": [],
            "name": "selectedMandatoryField",
            "references": [],
            "type": "String"
        },
        {
            "annotations": [],
            "location": {
                "column": 24,
                "line": 394
            },
            "modifiers": [],
            "name": "dependentTaskRule",
            "references": [],
            "type": "Task_Rule__c"
        },
        {
            "annotations": [],
            "location": {
                "column": 16,
                "line": 398
            },
            "modifiers": [],
            "name": "dependentTask",
            "references": [],
            "type": "Task__c"
        },
        {
            "annotations": [],
            "location": {
                "column": 20,
                "line": 439
            },
            "modifiers": [],
            "name": "accountIdToPrimaryContactOCREmail",
            "references": [],
            "type": "Map"
        },
        {
            "annotations": [],
            "location": {
                "column": 16,
                "line": 441
            },
            "modifiers": [],
            "name": "triggerTask",
            "references": [],
            "type": "Task__c"
        },
        {
            "annotations": [],
            "location": {
                "column": 18,
                "line": 449
            },
            "modifiers": [],
            "name": "contactsToUpdate",
            "references": [],
            "type": "LIST"
        },
        {
            "annotations": [],
            "location": {
                "column": 16,
                "line": 451
            },
            "modifiers": [],
            "name": "contact",
            "references": [],
            "type": "Contact"
        },
        {
            "annotations": [],
            "location": {
                "column": 13,
                "line": 455
            },
            "modifiers": [],
            "name": "tempContact",
            "references": [],
            "type": "Contact"
        },
        {
            "annotations": [],
            "location": {
                "column": 21,
                "line": 466
            },
            "modifiers": [],
            "name": "serviceWithNextCurrentTaskIndex",
            "references": [],
            "type": "Map"
        },
        {
            "annotations": [],
            "location": {
                "column": 18,
                "line": 467
            },
            "modifiers": [],
            "name": "currentCompletedTasks",
            "references": [],
            "type": "LIST"
        },
        {
            "annotations": [],
            "location": {
                "column": 18,
                "line": 468
            },
            "modifiers": [],
            "name": "nextCurrentTasks",
            "references": [],
            "type": "LIST"
        },
        {
            "annotations": [],
            "location": {
                "column": 16,
                "line": 470
            },
            "modifiers": [],
            "name": "triggerTask",
            "references": [],
            "type": "Task__c"
        },
        {
            "annotations": [],
            "location": {
                "column": 19,
                "line": 481
            },
            "modifiers": [],
            "name": "service",
            "references": [],
            "type": "Service__c"
        },
        {
            "annotations": [],
            "location": {
                "column": 18,
                "line": 485
            },
            "modifiers": [],
            "name": "serviceTask",
            "references": [],
            "type": "Task__c"
        }
    ]
}