{
    "constructors": [],
    "externalReferences": [],
    "id": "01p90000006KnTdAAK",
    "innerClasses": [],
    "interfaces": [],
    "key": "01p90000006KnTdAAK",
    "methods": [
        {
            "annotations": [],
            "location": {
                "column": 21,
                "line": 3
            },
            "modifiers": [
                "static",
                "public"
            ],
            "name": "populateOrderOfExecution",
            "parameters": [],
            "references": [],
            "returnType": "void",
            "type": null
        }
    ],
    "name": "TaskTemplateUtils",
    "namespace": null,
    "parentClass": "",
    "properties": [],
    "tableDeclaration": {
        "annotations": [],
        "location": {
            "column": 27,
            "line": 1
        },
        "modifiers": [
            "public",
            "with sharing"
        ],
        "name": "TaskTemplateUtils",
        "references": [],
        "type": "TaskTemplateUtils"
    },
    "variables": [
        {
            "annotations": [],
            "location": {
                "column": 12,
                "line": 5
            },
            "modifiers": [],
            "name": "targetedProcessTemplateIds",
            "references": [],
            "type": "Set"
        },
        {
            "annotations": [],
            "location": {
                "column": 16,
                "line": 7
            },
            "modifiers": [],
            "name": "taskTemplateSObject",
            "references": [],
            "type": "SObject"
        },
        {
            "annotations": [],
            "location": {
                "column": 21,
                "line": 9
            },
            "modifiers": [],
            "name": "taskTemplate",
            "references": [],
            "type": "Task_Template__c"
        },
        {
            "annotations": [],
            "location": {
                "column": 21,
                "line": 17
            },
            "modifiers": [],
            "name": "processTemplateIdToNumberOfTaskTemplates",
            "references": [],
            "type": "Map"
        },
        {
            "annotations": [],
            "location": {
                "column": 28,
                "line": 19
            },
            "modifiers": [],
            "name": "processTemplate",
            "references": [],
            "type": "Process_Template__c"
        },
        {
            "annotations": [],
            "location": {
                "column": 16,
                "line": 24
            },
            "modifiers": [],
            "name": "taskTemplateSObject",
            "references": [],
            "type": "SObject"
        },
        {
            "annotations": [],
            "location": {
                "column": 21,
                "line": 26
            },
            "modifiers": [],
            "name": "taskTemplate",
            "references": [],
            "type": "Task_Template__c"
        }
    ]
}