{
    "constructors": [],
    "externalReferences": [],
    "id": "01p90000004fwdUAAQ",
    "innerClasses": [],
    "interfaces": [],
    "key": "01p90000004fwdUAAQ",
    "methods": [
        {
            "annotations": [
                {
                    "name": "IsTest"
                }
            ],
            "location": {
                "column": 25,
                "line": 4
            },
            "modifiers": [
                "private",
                "static",
                "testMethod"
            ],
            "name": "WebServiceCreateNewContactTestMethod",
            "parameters": [],
            "references": [],
            "returnType": "void",
            "type": null
        }
    ],
    "name": "WebServiceCreateNewContactTest",
    "namespace": null,
    "parentClass": "",
    "properties": [],
    "tableDeclaration": {
        "annotations": [
            {
                "name": "IsTest"
            }
        ],
        "location": {
            "column": 15,
            "line": 2
        },
        "modifiers": [
            "private",
            "testMethod"
        ],
        "name": "WebServiceCreateNewContactTest",
        "references": [],
        "type": "WebServiceCreateNewContactTest"
    },
    "variables": [
        {
            "annotations": [],
            "location": {
                "column": 15,
                "line": 6
            },
            "modifiers": [],
            "name": "req",
            "references": [],
            "type": "RestRequest"
        },
        {
            "annotations": [],
            "location": {
                "column": 16,
                "line": 7
            },
            "modifiers": [],
            "name": "res",
            "references": [],
            "type": "RestResponse"
        },
        {
            "annotations": [],
            "location": {
                "column": 38,
                "line": 15
            },
            "modifiers": [],
            "name": "response",
            "references": [],
            "type": "GenericResponse"
        },
        {
            "annotations": [],
            "location": {
                "column": 44,
                "line": 19
            },
            "modifiers": [],
            "name": "customContact",
            "references": [],
            "type": "CustomContact"
        },
        {
            "annotations": [],
            "location": {
                "column": 11,
                "line": 41
            },
            "modifiers": [],
            "name": "account",
            "references": [],
            "type": "Account"
        },
        {
            "annotations": [],
            "location": {
                "column": 11,
                "line": 46
            },
            "modifiers": [],
            "name": "contact",
            "references": [],
            "type": "Contact"
        }
    ]
}