{
    "constructors": [],
    "externalReferences": [],
    "id": "01p90000004fwdVAAQ",
    "innerClasses": [],
    "interfaces": [],
    "key": "01p90000004fwdVAAQ",
    "methods": [
        {
            "annotations": [
                {
                    "name": "HttpPost"
                }
            ],
            "location": {
                "column": 51,
                "line": 5
            },
            "modifiers": [
                "static",
                "global"
            ],
            "name": "createNewUser",
            "parameters": [
                {
                    "name": "user",
                    "type": "User"
                }
            ],
            "references": [],
            "returnType": "GenericResponse",
            "type": null
        },
        {
            "annotations": [
                {
                    "name": "HttpPatch"
                }
            ],
            "location": {
                "column": 51,
                "line": 81
            },
            "modifiers": [
                "static",
                "global"
            ],
            "name": "updateUser",
            "parameters": [
                {
                    "name": "user",
                    "type": "User"
                }
            ],
            "references": [],
            "returnType": "GenericResponse",
            "type": null
        },
        {
            "annotations": [
                {
                    "name": "Future"
                }
            ],
            "location": {
                "column": 21,
                "line": 133
            },
            "modifiers": [
                "static",
                "global"
            ],
            "name": "insertLogs",
            "parameters": [
                {
                    "name": "apiStatus",
                    "type": "String"
                },
                {
                    "name": "apiMessage",
                    "type": "String"
                },
                {
                    "name": "apiLogJson",
                    "type": "String"
                },
                {
                    "name": "requestString",
                    "type": "String"
                },
                {
                    "name": "responseString",
                    "type": "String"
                }
            ],
            "references": [],
            "returnType": "void",
            "type": null
        }
    ],
    "name": "WebServiceCreateUpdateUser",
    "namespace": null,
    "parentClass": "",
    "properties": [],
    "tableDeclaration": {
        "annotations": [
            {
                "name": "RestResource"
            }
        ],
        "location": {
            "column": 27,
            "line": 2
        },
        "modifiers": [
            "global",
            "with sharing"
        ],
        "name": "WebServiceCreateUpdateUser",
        "references": [],
        "type": "WebServiceCreateUpdateUser"
    },
    "variables": [
        {
            "annotations": [],
            "location": {
                "column": 70,
                "line": 5
            },
            "modifiers": [],
            "name": "user",
            "references": [],
            "type": "User"
        },
        {
            "annotations": [],
            "location": {
                "column": 10,
                "line": 12
            },
            "modifiers": [],
            "name": "apiLogJson",
            "references": [],
            "type": "String"
        },
        {
            "annotations": [],
            "location": {
                "column": 10,
                "line": 13
            },
            "modifiers": [],
            "name": "apiStatus",
            "references": [],
            "type": "String"
        },
        {
            "annotations": [],
            "location": {
                "column": 10,
                "line": 14
            },
            "modifiers": [],
            "name": "apiMessage",
            "references": [],
            "type": "String"
        },
        {
            "annotations": [],
            "location": {
                "column": 10,
                "line": 15
            },
            "modifiers": [],
            "name": "requestString",
            "references": [],
            "type": "String"
        },
        {
            "annotations": [],
            "location": {
                "column": 10,
                "line": 16
            },
            "modifiers": [],
            "name": "responseString",
            "references": [],
            "type": "String"
        },
        {
            "annotations": [],
            "location": {
                "column": 19,
                "line": 24
            },
            "modifiers": [],
            "name": "profiles",
            "references": [],
            "type": "LIST"
        },
        {
            "annotations": [],
            "location": {
                "column": 21,
                "line": 35
            },
            "modifiers": [],
            "name": "roles",
            "references": [],
            "type": "LIST"
        },
        {
            "annotations": [],
            "location": {
                "column": 67,
                "line": 81
            },
            "modifiers": [],
            "name": "user",
            "references": [],
            "type": "User"
        },
        {
            "annotations": [],
            "location": {
                "column": 10,
                "line": 83
            },
            "modifiers": [],
            "name": "apiLogJson",
            "references": [],
            "type": "String"
        },
        {
            "annotations": [],
            "location": {
                "column": 10,
                "line": 84
            },
            "modifiers": [],
            "name": "apiStatus",
            "references": [],
            "type": "String"
        },
        {
            "annotations": [],
            "location": {
                "column": 10,
                "line": 85
            },
            "modifiers": [],
            "name": "apiMessage",
            "references": [],
            "type": "String"
        },
        {
            "annotations": [],
            "location": {
                "column": 10,
                "line": 86
            },
            "modifiers": [],
            "name": "requestString",
            "references": [],
            "type": "String"
        },
        {
            "annotations": [],
            "location": {
                "column": 10,
                "line": 87
            },
            "modifiers": [],
            "name": "responseString",
            "references": [],
            "type": "String"
        },
        {
            "annotations": [],
            "location": {
                "column": 17,
                "line": 97
            },
            "modifiers": [],
            "name": "existingUsers",
            "references": [],
            "type": "LIST"
        },
        {
            "annotations": [],
            "location": {
                "column": 39,
                "line": 133
            },
            "modifiers": [],
            "name": "apiStatus",
            "references": [],
            "type": "String"
        },
        {
            "annotations": [],
            "location": {
                "column": 57,
                "line": 133
            },
            "modifiers": [],
            "name": "apiMessage",
            "references": [],
            "type": "String"
        },
        {
            "annotations": [],
            "location": {
                "column": 76,
                "line": 133
            },
            "modifiers": [],
            "name": "apiLogJson",
            "references": [],
            "type": "String"
        },
        {
            "annotations": [],
            "location": {
                "column": 95,
                "line": 133
            },
            "modifiers": [],
            "name": "requestString",
            "references": [],
            "type": "String"
        },
        {
            "annotations": [],
            "location": {
                "column": 117,
                "line": 133
            },
            "modifiers": [],
            "name": "responseString",
            "references": [],
            "type": "String"
        }
    ]
}