{
    "constructors": [],
    "externalReferences": [],
    "id": "01p90000006GrWqAAK",
    "innerClasses": [],
    "interfaces": [],
    "key": "01p90000006GrWqAAK",
    "methods": [
        {
            "annotations": [
                {
                    "name": "HttpPatch"
                }
            ],
            "location": {
                "column": 54,
                "line": 5
            },
            "modifiers": [
                "static",
                "global"
            ],
            "name": "updateAccount",
            "parameters": [
                {
                    "name": "account",
                    "type": "Account"
                }
            ],
            "references": [],
            "returnType": "GenericResponse",
            "type": null
        },
        {
            "annotations": [],
            "location": {
                "column": 55,
                "line": 30
            },
            "modifiers": [
                "static",
                "global"
            ],
            "name": "processContactUpdate",
            "parameters": [
                {
                    "name": "account",
                    "type": "SObject"
                }
            ],
            "references": [],
            "returnType": "GenericResponse",
            "type": null
        },
        {
            "annotations": [],
            "location": {
                "column": 38,
                "line": 120
            },
            "modifiers": [
                "static",
                "public"
            ],
            "name": "findContactDetails",
            "parameters": [
                {
                    "name": "companyName",
                    "type": "String"
                }
            ],
            "references": [],
            "returnType": "Map",
            "type": null
        },
        {
            "annotations": [],
            "location": {
                "column": 55,
                "line": 146
            },
            "modifiers": [
                "static",
                "global"
            ],
            "name": "processAccountUpdate",
            "parameters": [
                {
                    "name": "account",
                    "type": "Account"
                }
            ],
            "references": [],
            "returnType": "GenericResponse",
            "type": null
        }
    ],
    "name": "WebServiceUpdateAccountFromEI",
    "namespace": null,
    "parentClass": "",
    "properties": [],
    "tableDeclaration": {
        "annotations": [
            {
                "name": "RestResource"
            }
        ],
        "location": {
            "column": 28,
            "line": 2
        },
        "modifiers": [
            "global",
            "with sharing"
        ],
        "name": "WebServiceUpdateAccountFromEI",
        "references": [],
        "type": "WebServiceUpdateAccountFromEI"
    },
    "variables": [
        {
            "annotations": [],
            "location": {
                "column": 76,
                "line": 5
            },
            "modifiers": [],
            "name": "account",
            "references": [],
            "type": "Account"
        },
        {
            "annotations": [],
            "location": {
                "column": 84,
                "line": 30
            },
            "modifiers": [],
            "name": "account",
            "references": [],
            "type": "SObject"
        },
        {
            "annotations": [],
            "location": {
                "column": 17,
                "line": 32
            },
            "modifiers": [],
            "name": "contact",
            "references": [],
            "type": "Contact"
        },
        {
            "annotations": [],
            "location": {
                "column": 28,
                "line": 34
            },
            "modifiers": [],
            "name": "contactDetails",
            "references": [],
            "type": "Map"
        },
        {
            "annotations": [],
            "location": {
                "column": 37,
                "line": 51
            },
            "modifiers": [],
            "name": "setting",
            "references": [],
            "type": "LIST"
        },
        {
            "annotations": [],
            "location": {
                "column": 20,
                "line": 63
            },
            "modifiers": [],
            "name": "query",
            "references": [],
            "type": "String"
        },
        {
            "annotations": [],
            "location": {
                "column": 47,
                "line": 64
            },
            "modifiers": [],
            "name": "contactFields",
            "references": [],
            "type": "Map"
        },
        {
            "annotations": [],
            "location": {
                "column": 26,
                "line": 66
            },
            "modifiers": [],
            "name": "filteredContactFields",
            "references": [],
            "type": "Set"
        },
        {
            "annotations": [],
            "location": {
                "column": 21,
                "line": 68
            },
            "modifiers": [],
            "name": "tempContact",
            "references": [],
            "type": "SObject"
        },
        {
            "annotations": [],
            "location": {
                "column": 25,
                "line": 70
            },
            "modifiers": [],
            "name": "s",
            "references": [],
            "type": "String"
        },
        {
            "annotations": [],
            "location": {
                "column": 20,
                "line": 81
            },
            "modifiers": [],
            "name": "contactId",
            "references": [],
            "type": "String"
        },
        {
            "annotations": [],
            "location": {
                "column": 28,
                "line": 84
            },
            "modifiers": [],
            "name": "contacts",
            "references": [],
            "type": "LIST"
        },
        {
            "annotations": [],
            "location": {
                "column": 25,
                "line": 88
            },
            "modifiers": [],
            "name": "contactRecord",
            "references": [],
            "type": "SObject"
        },
        {
            "annotations": [],
            "location": {
                "column": 29,
                "line": 91
            },
            "modifiers": [],
            "name": "s",
            "references": [],
            "type": "String"
        },
        {
            "annotations": [],
            "location": {
                "column": 64,
                "line": 120
            },
            "modifiers": [],
            "name": "companyName",
            "references": [],
            "type": "String"
        },
        {
            "annotations": [],
            "location": {
                "column": 21,
                "line": 121
            },
            "modifiers": [],
            "name": "salutations",
            "references": [],
            "type": "Set"
        },
        {
            "annotations": [],
            "location": {
                "column": 35,
                "line": 122
            },
            "modifiers": [],
            "name": "s",
            "references": [],
            "type": "PicklistEntry"
        },
        {
            "annotations": [],
            "location": {
                "column": 18,
                "line": 125
            },
            "modifiers": [],
            "name": "segments",
            "references": [],
            "type": "LIST"
        },
        {
            "annotations": [],
            "location": {
                "column": 29,
                "line": 126
            },
            "modifiers": [],
            "name": "contactName",
            "references": [],
            "type": "Map"
        },
        {
            "annotations": [],
            "location": {
                "column": 30,
                "line": 131
            },
            "modifiers": [],
            "name": "i",
            "references": [],
            "type": "Integer"
        },
        {
            "annotations": [],
            "location": {
                "column": 28,
                "line": 132
            },
            "modifiers": [],
            "name": "tmp",
            "references": [],
            "type": "String"
        },
        {
            "annotations": [],
            "location": {
                "column": 30,
                "line": 137
            },
            "modifiers": [],
            "name": "i",
            "references": [],
            "type": "Integer"
        },
        {
            "annotations": [],
            "location": {
                "column": 28,
                "line": 138
            },
            "modifiers": [],
            "name": "tmp",
            "references": [],
            "type": "String"
        },
        {
            "annotations": [],
            "location": {
                "column": 84,
                "line": 146
            },
            "modifiers": [],
            "name": "account",
            "references": [],
            "type": "Account"
        },
        {
            "annotations": [],
            "location": {
                "column": 41,
                "line": 151
            },
            "modifiers": [],
            "name": "setting",
            "references": [],
            "type": "LIST"
        },
        {
            "annotations": [],
            "location": {
                "column": 20,
                "line": 156
            },
            "modifiers": [],
            "name": "query",
            "references": [],
            "type": "String"
        },
        {
            "annotations": [],
            "location": {
                "column": 47,
                "line": 157
            },
            "modifiers": [],
            "name": "accountFields",
            "references": [],
            "type": "Map"
        },
        {
            "annotations": [],
            "location": {
                "column": 26,
                "line": 159
            },
            "modifiers": [],
            "name": "filteredAccountFields",
            "references": [],
            "type": "Set"
        },
        {
            "annotations": [],
            "location": {
                "column": 21,
                "line": 161
            },
            "modifiers": [],
            "name": "tempAccount",
            "references": [],
            "type": "SObject"
        },
        {
            "annotations": [],
            "location": {
                "column": 25,
                "line": 163
            },
            "modifiers": [],
            "name": "s",
            "references": [],
            "type": "String"
        },
        {
            "annotations": [],
            "location": {
                "column": 20,
                "line": 174
            },
            "modifiers": [],
            "name": "accountId",
            "references": [],
            "type": "String"
        },
        {
            "annotations": [],
            "location": {
                "column": 28,
                "line": 177
            },
            "modifiers": [],
            "name": "accounts",
            "references": [],
            "type": "LIST"
        },
        {
            "annotations": [],
            "location": {
                "column": 25,
                "line": 181
            },
            "modifiers": [],
            "name": "accountRecord",
            "references": [],
            "type": "SObject"
        },
        {
            "annotations": [],
            "location": {
                "column": 29,
                "line": 184
            },
            "modifiers": [],
            "name": "s",
            "references": [],
            "type": "String"
        }
    ]
}