{
    "constructors": [],
    "externalReferences": [],
    "id": "01p90000004fwdgAAA",
    "innerClasses": [],
    "interfaces": [],
    "key": "01p90000004fwdgAAA",
    "methods": [
        {
            "annotations": [
                {
                    "name": "IsTest"
                }
            ],
            "location": {
                "column": 25,
                "line": 4
            },
            "modifiers": [
                "private",
                "static",
                "testMethod"
            ],
            "name": "WebServiceUpdateAccountTestMethod",
            "parameters": [],
            "references": [],
            "returnType": "void",
            "type": null
        }
    ],
    "name": "WebServiceUpdateAccountTest",
    "namespace": null,
    "parentClass": "",
    "properties": [],
    "tableDeclaration": {
        "annotations": [
            {
                "name": "IsTest"
            }
        ],
        "location": {
            "column": 15,
            "line": 2
        },
        "modifiers": [
            "private",
            "testMethod"
        ],
        "name": "WebServiceUpdateAccountTest",
        "references": [],
        "type": "WebServiceUpdateAccountTest"
    },
    "variables": [
        {
            "annotations": [],
            "location": {
                "column": 15,
                "line": 6
            },
            "modifiers": [],
            "name": "req",
            "references": [],
            "type": "RestRequest"
        },
        {
            "annotations": [],
            "location": {
                "column": 16,
                "line": 7
            },
            "modifiers": [],
            "name": "res",
            "references": [],
            "type": "RestResponse"
        },
        {
            "annotations": [],
            "location": {
                "column": 38,
                "line": 14
            },
            "modifiers": [],
            "name": "response",
            "references": [],
            "type": "GenericResponse"
        },
        {
            "annotations": [],
            "location": {
                "column": 41,
                "line": 18
            },
            "modifiers": [],
            "name": "customAccount",
            "references": [],
            "type": "CustomAccount"
        },
        {
            "annotations": [],
            "location": {
                "column": 11,
                "line": 28
            },
            "modifiers": [],
            "name": "account",
            "references": [],
            "type": "Account"
        }
    ]
}