{
    "constructors": [],
    "externalReferences": [],
    "id": "01p90000004fwdRAAQ",
    "innerClasses": [],
    "interfaces": [],
    "key": "01p90000004fwdRAAQ",
    "methods": [
        {
            "annotations": [],
            "location": {
                "column": 21,
                "line": 7
            },
            "modifiers": [
                "static",
                "public"
            ],
            "name": "logRequest",
            "parameters": [],
            "references": [],
            "returnType": "void",
            "type": null
        },
        {
            "annotations": [],
            "location": {
                "column": 21,
                "line": 30
            },
            "modifiers": [
                "static",
                "public"
            ],
            "name": "logResponse",
            "parameters": [
                {
                    "name": "status",
                    "type": "String"
                },
                {
                    "name": "body",
                    "type": "String"
                }
            ],
            "references": [],
            "returnType": "void",
            "type": null
        }
    ],
    "name": "WebServiceAPILogger",
    "namespace": null,
    "parentClass": "",
    "properties": [
        {
            "annotations": [],
            "location": {
                "column": 28,
                "line": 3
            },
            "modifiers": [
                "static",
                "public"
            ],
            "name": "restRequest",
            "references": [],
            "type": "RestRequest"
        },
        {
            "annotations": [],
            "location": {
                "column": 29,
                "line": 4
            },
            "modifiers": [
                "static",
                "public"
            ],
            "name": "restResponse",
            "references": [],
            "type": "RestResponse"
        },
        {
            "annotations": [],
            "location": {
                "column": 35,
                "line": 5
            },
            "modifiers": [
                "static",
                "public"
            ],
            "name": "apiCallLogEntry",
            "references": [],
            "type": "APICallLogEntry__c"
        }
    ],
    "tableDeclaration": {
        "annotations": [],
        "location": {
            "column": 27,
            "line": 1
        },
        "modifiers": [
            "global",
            "with sharing"
        ],
        "name": "WebServiceAPILogger",
        "references": [],
        "type": "WebServiceAPILogger"
    },
    "variables": [
        {
            "annotations": [],
            "location": {
                "column": 15,
                "line": 15
            },
            "modifiers": [],
            "name": "headerKey",
            "references": [],
            "type": "String"
        },
        {
            "annotations": [],
            "location": {
                "column": 40,
                "line": 30
            },
            "modifiers": [],
            "name": "status",
            "references": [],
            "type": "String"
        },
        {
            "annotations": [],
            "location": {
                "column": 55,
                "line": 30
            },
            "modifiers": [],
            "name": "body",
            "references": [],
            "type": "String"
        }
    ]
}