{
    "constructors": [],
    "externalReferences": [],
    "id": "01p6F000006uScHQAU",
    "innerClasses": [],
    "interfaces": [],
    "key": "01p6F000006uScHQAU",
    "methods": [
        {
            "annotations": [
                {
                    "name": "IsTest"
                }
            ],
            "location": {
                "column": 35,
                "line": 4
            },
            "modifiers": [
                "static",
                "public",
                "testMethod"
            ],
            "name": "testWSFederationManagementController",
            "parameters": [],
            "references": [],
            "returnType": "void",
            "type": null
        }
    ],
    "name": "WSFederationManagementControllerTest",
    "namespace": null,
    "parentClass": "",
    "properties": [],
    "tableDeclaration": {
        "annotations": [
            {
                "name": "IsTest"
            }
        ],
        "location": {
            "column": 14,
            "line": 2
        },
        "modifiers": [
            "public",
            "testMethod"
        ],
        "name": "WSFederationManagementControllerTest",
        "references": [],
        "type": "WSFederationManagementControllerTest"
    },
    "variables": [
        {
            "annotations": [],
            "location": {
                "column": 32,
                "line": 6
            },
            "modifiers": [],
            "name": "realm",
            "references": [],
            "type": "WS_Federation_Realm__c"
        },
        {
            "annotations": [],
            "location": {
                "column": 42,
                "line": 19
            },
            "modifiers": [],
            "name": "managementcontroller",
            "references": [],
            "type": "WSFederationManagementController"
        },
        {
            "annotations": [],
            "location": {
                "column": 37,
                "line": 20
            },
            "modifiers": [],
            "name": "config",
            "references": [],
            "type": "WS_Federation_Realm__c"
        }
    ]
}